%!PS-Adobe-2.0 
%%Creator: MATLAB, The Mathworks, Inc. Version 7.5.0.342 (R2007b). Operating System: Microsoft Windows Vista.
%%Title: .\hello.ps
%%CreationDate: 11/24/2008  04:10:16
%%DocumentNeededFonts: Helvetica
%%DocumentProcessColors: Cyan Magenta Yellow Black
%%Pages: (atend)
%%BoundingBox: (atend)
%%EndComments

%%BeginProlog
% MathWorks dictionary
/MathWorks 160 dict begin
% definition operators
/bdef {bind def} bind def
/ldef {load def} bind def
/xdef {exch def} bdef
/xstore {exch store} bdef
% operator abbreviations
/c  /clip ldef
/cc /concat ldef
/cp /closepath ldef
/gr /grestore ldef
/gs /gsave ldef
/mt /moveto ldef
/np /newpath ldef
/cm /currentmatrix ldef
/sm /setmatrix ldef
/rm /rmoveto ldef
/rl /rlineto ldef
/s {show newpath} bdef
/sc {setcmykcolor} bdef
/sr /setrgbcolor ldef
/sg /setgray ldef
/w /setlinewidth ldef
/j /setlinejoin ldef
/cap /setlinecap ldef
/rc {rectclip} bdef
/rf {rectfill} bdef
% page state control
/pgsv () def
/bpage {/pgsv save def} bdef
/epage {pgsv restore} bdef
/bplot /gsave ldef
/eplot {stroke grestore} bdef
% orientation switch
/portraitMode 0 def /landscapeMode 1 def /rotateMode 2 def
% coordinate system mappings
/dpi2point 0 def
% font control
/FontSize 0 def
/FMS {/FontSize xstore findfont [FontSize 0 0 FontSize neg 0 0]
  makefont setfont} bdef
/ISOLatin1Encoding where {pop /WindowsLatin1Encoding 256 array bdef
ISOLatin1Encoding WindowsLatin1Encoding copy pop
/.notdef/.notdef/quotesinglbase/florin/quotedblbase/ellipsis/dagger
/daggerdbl/circumflex/perthousand/Scaron/guilsinglleft/OE/.notdef/.notdef
/.notdef/.notdef/quoteleft/quoteright/quotedblleft/quotedblright/bullet
/endash/emdash/tilde/trademark/scaron/guilsinglright/oe/.notdef/.notdef
/Ydieresis WindowsLatin1Encoding 128 32 getinterval astore pop}
{/WindowsLatin1Encoding StandardEncoding bdef} ifelse
/reencode {exch dup where {pop load} {pop StandardEncoding} ifelse
  exch dup 3 1 roll findfont dup length dict begin
  { 1 index /FID ne {def}{pop pop} ifelse } forall
  /Encoding exch def currentdict end definefont pop} bdef
/isroman {findfont /CharStrings get /Agrave known} bdef
/FMSR {3 1 roll 1 index dup isroman {reencode} {pop pop} ifelse
  exch FMS} bdef
/csm {1 dpi2point div -1 dpi2point div scale neg translate
 dup landscapeMode eq {pop -90 rotate}
  {rotateMode eq {90 rotate} if} ifelse} bdef
% line types: solid, dotted, dashed, dotdash
/SO { [] 0 setdash } bdef
/DO { [.5 dpi2point mul 4 dpi2point mul] 0 setdash } bdef
/DA { [6 dpi2point mul] 0 setdash } bdef
/DD { [.5 dpi2point mul 4 dpi2point mul 6 dpi2point mul 4
  dpi2point mul] 0 setdash } bdef
% macros for lines and objects
/L {lineto stroke} bdef
/MP {3 1 roll moveto 1 sub {rlineto} repeat} bdef
/AP {{rlineto} repeat} bdef
/PDlw -1 def
/W {/PDlw currentlinewidth def setlinewidth} def
/PP {closepath eofill} bdef
/DP {closepath stroke} bdef
/MR {4 -2 roll moveto dup  0 exch rlineto exch 0 rlineto
  neg 0 exch rlineto closepath} bdef
/FR {MR stroke} bdef
/PR {MR fill} bdef
/L1i {{currentfile picstr readhexstring pop} image} bdef
/tMatrix matrix def
/MakeOval {newpath tMatrix currentmatrix pop translate scale
0 0 1 0 360 arc tMatrix setmatrix} bdef
/FO {MakeOval stroke} bdef
/PO {MakeOval fill} bdef
/PD {currentlinewidth 2 div 0 360 arc fill
   PDlw -1 eq not {PDlw w /PDlw -1 def} if} def
/FA {newpath tMatrix currentmatrix pop translate scale
  0 0 1 5 -2 roll arc tMatrix setmatrix stroke} bdef
/PA {newpath tMatrix currentmatrix pop	translate 0 0 moveto scale
  0 0 1 5 -2 roll arc closepath tMatrix setmatrix fill} bdef
/FAn {newpath tMatrix currentmatrix pop translate scale
  0 0 1 5 -2 roll arcn tMatrix setmatrix stroke} bdef
/PAn {newpath tMatrix currentmatrix pop translate 0 0 moveto scale
  0 0 1 5 -2 roll arcn closepath tMatrix setmatrix fill} bdef
/vradius 0 def /hradius 0 def /lry 0 def
/lrx 0 def /uly 0 def /ulx 0 def /rad 0 def
/MRR {/vradius xdef /hradius xdef /lry xdef /lrx xdef /uly xdef
  /ulx xdef newpath tMatrix currentmatrix pop ulx hradius add uly
  vradius add translate hradius vradius scale 0 0 1 180 270 arc 
  tMatrix setmatrix lrx hradius sub uly vradius add translate
  hradius vradius scale 0 0 1 270 360 arc tMatrix setmatrix
  lrx hradius sub lry vradius sub translate hradius vradius scale
  0 0 1 0 90 arc tMatrix setmatrix ulx hradius add lry vradius sub
  translate hradius vradius scale 0 0 1 90 180 arc tMatrix setmatrix
  closepath} bdef
/FRR {MRR stroke } bdef
/PRR {MRR fill } bdef
/MlrRR {/lry xdef /lrx xdef /uly xdef /ulx xdef /rad lry uly sub 2 div def
  newpath tMatrix currentmatrix pop ulx rad add uly rad add translate
  rad rad scale 0 0 1 90 270 arc tMatrix setmatrix lrx rad sub lry rad
  sub translate rad rad scale 0 0 1 270 90 arc tMatrix setmatrix
  closepath} bdef
/FlrRR {MlrRR stroke } bdef
/PlrRR {MlrRR fill } bdef
/MtbRR {/lry xdef /lrx xdef /uly xdef /ulx xdef /rad lrx ulx sub 2 div def
  newpath tMatrix currentmatrix pop ulx rad add uly rad add translate
  rad rad scale 0 0 1 180 360 arc tMatrix setmatrix lrx rad sub lry rad
  sub translate rad rad scale 0 0 1 0 180 arc tMatrix setmatrix
  closepath} bdef
/FtbRR {MtbRR stroke } bdef
/PtbRR {MtbRR fill } bdef
/stri 6 array def /dtri 6 array def
/smat 6 array def /dmat 6 array def
/tmat1 6 array def /tmat2 6 array def /dif 3 array def
/asub {/ind2 exch def /ind1 exch def dup dup
  ind1 get exch ind2 get sub exch } bdef
/tri_to_matrix {
  2 0 asub 3 1 asub 4 0 asub 5 1 asub
  dup 0 get exch 1 get 7 -1 roll astore } bdef
/compute_transform {
  dmat dtri tri_to_matrix tmat1 invertmatrix 
  smat stri tri_to_matrix tmat2 concatmatrix } bdef
/ds {stri astore pop} bdef
/dt {dtri astore pop} bdef
/db {2 copy /cols xdef /rows xdef mul dup string
  currentfile exch readhexstring pop
  /bmap xdef pop pop} bdef
/it {gs np dtri aload pop moveto lineto lineto cp c
  cols rows 8 compute_transform 
  {bmap} image gr}bdef
/il {newpath moveto lineto stroke}bdef
currentdict end def
%%EndProlog

%%BeginSetup
MathWorks begin

0 cap

end
%%EndSetup

%%Page: 1 1
%%BeginPageSetup
%%PageBoundingBox:    52   199   546   602
MathWorks begin
bpage
%%EndPageSetup

%%BeginObject: obj1
bplot

/dpi2point 12 def
portraitMode 0216 7344 csm

  410   110  5933  4846 MR c np
85 dict begin %Colortable dictionary
/c0 { 0.000000 0.000000 0.000000 sr} bdef
/c1 { 1.000000 1.000000 1.000000 sr} bdef
/c2 { 0.900000 0.000000 0.000000 sr} bdef
/c3 { 0.000000 0.820000 0.000000 sr} bdef
/c4 { 0.000000 0.000000 0.800000 sr} bdef
/c5 { 0.910000 0.820000 0.320000 sr} bdef
/c6 { 1.000000 0.260000 0.820000 sr} bdef
/c7 { 0.000000 0.820000 0.820000 sr} bdef
c0
1 j
1 sg
   0    0 6919 5187 PR
6 w
0 4227 5362 0 0 -4227 899 4616 4 MP
PP
-5362 0 0 4227 5362 0 0 -4227 899 4616 5 MP stroke
4 w
DO
SO
6 w
0 sg
 899 4616 mt 6261 4616 L
 899 4616 mt  899  389 L
 899 4616 mt  899 4562 L
%%IncludeResource: font Helvetica
/Helvetica /WindowsLatin1Encoding 120 FMSR

 866 4761 mt 
(0) s
1435 4616 mt 1435 4562 L
1352 4761 mt 
(0.1) s
1971 4616 mt 1971 4562 L
1888 4761 mt 
(0.2) s
2507 4616 mt 2507 4562 L
2424 4761 mt 
(0.3) s
3043 4616 mt 3043 4562 L
2960 4761 mt 
(0.4) s
3580 4616 mt 3580 4562 L
3497 4761 mt 
(0.5) s
4116 4616 mt 4116 4562 L
4033 4761 mt 
(0.6) s
4652 4616 mt 4652 4562 L
4569 4761 mt 
(0.7) s
5188 4616 mt 5188 4562 L
5105 4761 mt 
(0.8) s
5724 4616 mt 5724 4562 L
5641 4761 mt 
(0.9) s
6261 4616 mt 6261 4562 L
6228 4761 mt 
(1) s
 899 4616 mt  952 4616 L
 628 4660 mt 
(-0.8) s
 899 4012 mt  952 4012 L
 628 4056 mt 
(-0.6) s
 899 3408 mt  952 3408 L
 628 3452 mt 
(-0.4) s
 899 2804 mt  952 2804 L
 628 2848 mt 
(-0.2) s
 899 2200 mt  952 2200 L
 798 2244 mt 
(0) s
 899 1596 mt  952 1596 L
 698 1640 mt 
(0.2) s
 899  992 mt  952  992 L
 698 1036 mt 
(0.4) s
 899  389 mt  952  389 L
 698  433 mt 
(0.6) s
3376 4904 mt 
(Time\(s\)) s
 546 2770 mt  -90 rotate
(Amplitude) s
90 rotate
2107  294 mt 
(Non-Linear Inversion Iteration - Iteration 4 q = 35.4563) s
gs 899 389 5363 4228 MR c np
24 w
6 799 5 -2101 6 1082 5 -294 5 362 6 -575 5 374 5 887 
6 -122 5 -1601 5 799 6 26 5 -83 6 58 5 -614 5 541 
6 358 5 -586 5 808 6 -574 5 111 5 -835 6 1257 5 -565 
6 -1061 5 1788 5 247 6 -1113 5 190 5 -273 6 879 5 -993 
5 1579 6 -750 5 -625 6 -248 5 1050 5 -749 6 -223 5 728 
5 -170 6 -259 5 -670 5 935 6 148 5 352 6 316 5 213 
5 -455 6 -867 5 -50 5 -375 6 1166 5 -551 5 -237 6 -271 
5 746 5 132 6 -739 5 363 6 254 5 -608 5 863 6 604 
5 -446 5 -1257 6 232 5 -527 5 1242 6 -459 5 -384 6 859 
5 167 5 -90 6 -1107 5 1178 5 -791 6 694 5 -1267 5 0 
6 1042 5 441 6 -75 5 -474 5 -305 6 1122 5 -1114 5 -324 
6 754 5 9 5 -849 6 -216 5 989 6 675 5 -2007 5 1856 
6 -927 5 751 5 -89 5730 1905 100 MP stroke
6 561 5 -1746 5 760 6 779 5 -878 6 520 5 -480 5 211 
6 -883 5 1319 5 232 6 -511 5 -213 5 -19 6 271 5 368 
5 -327 6 226 5 -815 6 106 5 -807 5 722 6 199 5 -787 
5 990 6 651 5 -836 5 841 6 -208 5 -57 6 -393 5 448 
5 -871 6 765 5 -214 5 36 6 -1579 5 2628 5 -1109 6 -47 
5 141 6 -255 5 -303 5 571 6 11 5 -906 5 -463 6 524 
5 425 5 -480 6 596 5 488 6 103 5 -336 5 -893 6 1347 
5 -1641 5 1897 6 -1970 5 1482 5 -50 6 52 5 -1019 6 1018 
5 979 5 -1672 6 513 5 -228 5 -736 6 1505 5 -127 5 -474 
6 -131 5 61 5 531 6 -487 5 -776 6 800 5 -622 5 -425 
6 642 5 534 5 285 6 -446 5 -209 5 -335 6 897 5 -674 
6 657 5 -779 5 308 6 -545 5 39 5 627 6 -1444 5 1831 
5 -1189 6 1056 5 -835 5199 2582 100 MP stroke
6 866 5 -263 5 99 6 -1556 5 1399 5 -1098 6 1043 5 -693 
5 191 6 181 5 -496 6 610 5 276 5 -1036 6 -103 5 1286 
5 -1093 6 1454 5 -632 5 397 6 -790 5 -234 6 989 5 -1025 
5 -413 6 1568 5 159 5 42 6 -319 5 56 5 -514 6 515 
5 -314 5 -1756 6 2074 5 263 6 -459 5 -238 5 -375 6 497 
5 -458 5 599 6 -83 5 -1033 5 1026 6 1391 5 -1589 6 421 
5 -1030 5 760 6 -214 5 -552 5 -11 6 775 5 -78 5 237 
6 155 5 -343 6 422 5 -432 5 -129 6 104 5 -78 5 854 
6 -842 5 -1323 5 877 6 1122 5 -1803 6 1042 5 -539 5 -621 
6 538 5 569 5 -58 6 -566 5 726 5 244 6 -854 5 1255 
5 -309 6 -832 5 1002 6 -75 5 -769 5 787 6 -1020 5 1387 
5 -1180 6 211 5 672 5 -444 6 -240 5 1745 6 -1620 5 1270 
5 -2160 6 -144 5 1272 4668 1990 100 MP stroke
5 -679 6 270 5 348 5 345 6 -865 5 1051 6 38 5 -1204 
5 -68 6 602 5 325 5 471 6 -372 5 -1522 5 642 6 1065 
5 -1340 6 284 5 -250 5 1251 6 -1187 5 558 5 -98 6 -349 
5 549 5 -156 6 -81 5 557 6 65 5 -484 5 581 6 -775 
5 216 5 -276 6 539 5 1065 5 -1766 6 -156 5 -398 5 1959 
6 -908 5 407 6 -747 5 -56 5 1085 6 -615 5 -727 5 337 
6 32 5 -10 5 400 6 -243 5 420 6 -59 5 -362 5 295 
6 -1163 5 953 5 136 6 117 5 -73 5 -464 6 -1056 5 1324 
6 76 5 78 5 -878 6 548 5 -257 5 93 6 364 5 -159 
5 650 6 -612 5 169 6 424 5 -109 5 666 6 -626 5 -947 
5 614 6 1212 5 -1764 5 384 6 545 5 -940 6 756 5 524 
5 -513 6 -323 5 473 5 -1042 6 -196 5 1247 5 -329 6 -760 
5 1209 5 -274 6 -719 4137 2628 100 MP stroke
5 1297 6 102 5 -251 5 -261 6 -1465 5 1102 5 -967 6 1006 
5 -1017 5 1027 6 1446 5 -1436 6 -946 5 675 5 -52 6 719 
5 -1003 5 127 6 35 5 621 5 156 6 -1124 5 653 6 -659 
5 1615 5 -424 6 -762 5 347 5 196 6 -1057 5 497 5 36 
6 -367 5 551 6 -1600 5 1540 5 160 6 284 5 -153 5 -1032 
6 426 5 -1037 5 1413 6 -557 5 51 6 -254 5 603 5 494 
6 -1246 5 526 5 -426 6 -57 5 1245 5 -1161 6 296 5 964 
5 -669 6 1163 5 -892 6 292 5 -359 5 -872 6 559 5 903 
5 -243 6 -540 5 89 5 643 6 -889 5 1054 6 -139 5 -467 
5 -326 6 220 5 741 5 -146 6 -259 5 87 5 122 6 -315 
5 1159 6 -885 5 -413 5 -231 6 209 5 406 5 592 6 -1353 
5 47 5 -632 6 564 5 -213 6 543 5 327 5 608 6 80 
5 -1085 5 208 6 -227 3606 2271 100 MP stroke
5 -302 5 -392 6 1172 5 -1241 5 829 6 -411 5 265 6 24 
5 184 5 -468 6 110 5 -858 5 1205 6 844 5 -1279 5 582 
6 -704 5 -177 6 -221 5 803 5 -124 6 299 5 -165 5 -1328 
6 2030 5 -1185 5 952 6 -1886 5 2266 6 -736 5 -363 5 80 
6 377 5 -551 5 175 6 628 5 457 5 -916 6 -1155 5 1050 
6 182 5 -89 5 232 6 -621 5 985 5 -544 6 -501 5 706 
5 -406 6 548 5 -743 6 114 5 399 5 -174 6 -28 5 -3 
5 276 6 -650 5 -917 5 868 6 4 5 534 5 -393 6 -7 
5 -260 6 1853 5 -1120 5 863 6 -1721 5 1026 5 218 6 -592 
5 -387 5 -325 6 966 5 -1054 6 691 5 270 5 238 6 858 
5 -2460 5 853 6 1352 5 39 5 -450 6 377 5 -496 6 -1454 
5 1406 5 651 6 -1573 5 1000 5 -222 6 353 5 -822 5 719 
6 -256 5 371 6 503 3075 1214 100 MP stroke
5 -1299 5 449 6 731 5 -654 5 -209 6 -595 5 518 5 -504 
6 208 5 784 6 -291 5 -1183 5 1258 6 -10 5 572 5 -1212 
6 -330 5 1420 5 469 6 -1404 5 733 5 -570 6 310 5 1302 
6 -776 5 -925 5 -327 6 234 5 518 5 -321 6 -25 5 -644 
5 1735 6 174 5 -125 6 -1725 5 33 5 712 6 943 5 -1268 
5 72 6 -285 5 1370 5 -1216 6 -174 5 1246 6 -1874 5 1148 
5 -417 6 465 5 447 5 -1178 6 362 5 1066 5 -511 6 516 
5 -1352 6 484 5 98 5 -264 6 119 5 444 5 -245 6 -615 
5 261 5 37 6 421 5 203 6 -1779 5 1372 5 -333 6 588 
5 580 5 -415 6 101 5 -67 5 -1471 6 1444 5 278 5 -453 
6 -163 5 -93 6 -301 5 8 5 946 6 -501 5 -125 5 -246 
6 -684 5 -177 5 2068 6 408 5 -1516 6 1273 5 -1056 5 127 
6 -578 5 -25 5 772 2545 1898 100 MP stroke
6 -315 5 742 5 -1400 6 632 5 175 6 -618 5 1306 5 -399 
6 -1062 5 856 5 854 6 -1939 5 679 5 1431 6 -1651 5 338 
6 167 5 -481 5 1115 6 -453 5 -92 5 -129 6 -20 5 -907 
5 778 6 795 5 -714 6 168 5 -360 5 -391 6 -112 5 121 
5 341 6 -564 5 895 5 -773 6 -381 5 853 5 411 6 -373 
5 170 6 13 5 -404 5 1093 6 -1443 5 484 5 494 6 -602 
5 -593 5 220 6 667 5 -106 6 880 5 -590 5 -37 6 461 
5 -2024 5 1847 6 -886 5 568 5 -357 6 1461 5 -335 6 -922 
5 175 5 301 6 -963 5 694 5 504 6 -577 5 303 5 1057 
6 -877 5 -601 6 440 5 -119 5 -439 6 514 5 -813 5 496 
6 -404 5 1183 5 -744 6 958 5 -1017 5 -500 6 188 5 27 
6 -905 5 1831 5 -362 6 -320 5 686 5 -1398 6 -672 5 1018 
5 1129 6 -931 5 487 2014 1967 100 MP stroke
6 -557 5 -891 5 1285 6 -695 5 1014 5 -685 6 752 5 -1060 
5 1384 6 -861 5 -581 6 461 5 1308 5 -842 6 860 5 -767 
5 506 6 -745 5 -1016 5 614 6 883 5 -1222 6 -179 5 2117 
5 -818 6 -204 5 -499 5 56 6 246 5 -308 5 413 6 -943 
5 102 6 186 5 346 5 -919 6 1564 5 349 5 -872 6 -1304 
5 1138 5 481 6 14 5 -680 5 419 6 -556 5 835 6 -1100 
5 437 5 1277 6 -996 5 -239 5 147 6 -292 5 635 5 -345 
6 -38 5 -650 6 220 5 933 5 -528 6 -337 5 206 5 1252 
6 -580 5 -797 5 314 6 153 5 -747 6 350 5 1078 5 181 
6 -744 5 611 5 -1426 6 725 5 342 5 -873 6 407 5 574 
6 -1337 5 90 5 600 6 -96 5 -408 5 1114 6 -313 5 494 
5 -744 6 -676 5 111 6 630 5 -737 5 745 6 836 5 -1539 
5 -84 6 494 5 -334 1483 2842 100 MP stroke
5 -16 6 643 5 155 5 83 6 -486 5 928 6 -1913 5 618 
5 553 6 -348 5 821 5 104 6 -1073 5 814 5 -630 6 -66 
5 424 6 178 5 -311 5 746 6 -1083 5 -135 5 779 6 12 
5 -702 5 1187 6 -72 5 -102 6 -593 5 1071 5 -701 6 -144 
5 -241 5 -777 6 687 5 -70 5 61 6 493 5 70 6 -371 
5 345 5 118 6 128 5 -254 5 -1365 6 1814 5 -841 5 197 
6 -34 5 4 6 -619 5 813 5 -647 6 716 5 639 5 -735 
6 51 5 -985 5 579 6 -1261 5 775 5 716 6 217 5 -777 
6 1367 5 -1471 5 806 6 -1120 5 868 5 69 6 -736 5 1418 
5 -345 6 345 5 -376 6 42 5 -89 5 -662 6 593 5 -1201 
5 -70 6 1748 5 -209 5 -906 6 1425 5 -528 6 -1225 5 988 
5 -686 6 429 5 71 5 580 6 -606 5 -182 5 1374 6 -1695 
5 781 6 -555 5 225 952 2188 100 MP stroke
5 108 6 -197 5 769 5 33 6 -1381 5 894 5 -77 6 -1069 
5 748 904 2360 10 MP stroke
6 w
gr


end %%Color Dict

eplot
%%EndObject

epage
end

showpage

%%Trailer
%%BoundingBox:    52   199   546   602
%%Pages: 001
%%EOF
